{
  "stats": {
    "tests": 0,
    "passes": 0,
    "failures": 0,
    "duration": 973,
    "start": "2018-08-08T09:39:32.227Z",
    "end": "2018-08-08T09:39:33.200Z"
  },
  "failures": [],
  "passes": [],
  "skipped": []
}