{
  "communication": {
    "icon": "IconCorrespondenceOutline",
    "id": 1,
    "items": [
      {
        "data": {
          "ARCHIVE": [
            {
              "attachment": true,
              "date": "2017-10-11T05:10:56.606Z",
              "from": "Darth Vader",
              "icon": "IconProfile",
              "id": 140,
              "message": "The blasted rebels have destroyed my Planet Destroyer, how long will it take to process my claim to build a new new one?",
              "read": true,
              "replied": false,
              "subject": "Destroyer Hijacked"
            }
          ],
          "DRAFTS": [
            {
              "attachment": false,
              "date": "2017-10-11T05:10:56.606Z",
              "from": "Luke Skywalker",
              "icon": "IconEmailOutline",
              "id": 120,
              "message": "Mr Solo, I demand that you add my new Light Sabre to my policy, it's value is 3000 GC, my new apprentice, Kylo Ren will be using it. Fail me and die...",
              "priority": "LOW",
              "read": true,
              "replied": true,
              "subject": "Weapons System Upgrade"
            }
          ],
          "INBOX": [
            {
              "attachment": true,
              "date": "2017-10-11T05:10:56.606Z",
              "from": "Han Solo",
              "icon": "IconTimer",
              "id": 110,
              "message": "Hi, I am looking to upgrade the weapons system on my X-Wing Fighter to Star Wars is an American epic space opera media franchise, centered on a film series created by George Lucas. It depicts the adventures of various characters a long time ago in a galaxy far, far away",
              "priority": "LOW",
              "read": false,
              "replied": false,
              "subject": "Weapons System Upgrade"
            },
            {
              "attachment": true,
              "date": "2017-10-11T05:10:56.606Z",
              "from": "Princes Leila",
              "icon": "IconTimer",
              "id": 111,
              "message": "The blasted rebels have destroyed my Planet Destroyer, how long willit take to process my claim to build a new new one?",
              "priority": "HIGH",
              "read": true,
              "replied": true,
              "subject": "Policy Schedule"
            },
            {
              "attachment": true,
              "date": "2017-10-11T05:10:56.606Z",
              "from": "Han Solo",
              "icon": "IconTimer",
              "id": 112,
              "message": "The blasted rebels have destroyed my Planet Destroyer, how long willit take to process my claim to build a new new one?",
              "priority": "",
              "read": true,
              "replied": false,
              "subject": "Weapons System Upgrade"
            },
            {
              "attachment": true,
              "date": "2017-10-11T05:10:56.606Z",
              "from": "Yoda",
              "icon": "IconTimer",
              "id": 113,
              "message": "The blasted rebels have destroyed my Planet Destroyer, how long willit take to process my claim to build a new new one?",
              "priority": "",
              "read": false,
              "replied": false,
              "subject": "Weapons System Upgrade"
            },
            {
              "attachment": true,
              "date": "2017-10-11T05:10:56.606Z",
              "from": "Han Solo",
              "icon": "IconTimer",
              "id": 114,
              "message": "Hi, I am looking to upgrade the weapons system on my X-Wing Fighter to Star Wars is an American epic space opera media franchise, centered on a film series created by George Lucas. It depicts the adventures of various characters a long time ago in a galaxy far, far away",
              "priority": "LOW",
              "read": false,
              "replied": false,
              "subject": "Weapons System Upgrade"
            },
            {
              "attachment": true,
              "date": "2017-10-11T05:10:56.606Z",
              "from": "Princes Leila",
              "icon": "IconTimer",
              "id": 115,
              "message": "The blasted rebels have destroyed my Planet Destroyer, how long willit take to process my claim to build a new new one?",
              "priority": "HIGH",
              "read": true,
              "replied": true,
              "subject": "Policy Schedule"
            },
            {
              "attachment": true,
              "date": "2017-10-11T05:10:56.606Z",
              "from": "Han Solo",
              "icon": "IconTimer",
              "id": 116,
              "message": "The blasted rebels have destroyed my Planet Destroyer, how long willit take to process my claim to build a new new one?",
              "priority": "",
              "read": true,
              "replied": false,
              "subject": "Weapons System Upgrade"
            },
            {
              "attachment": true,
              "date": "2017-10-11T05:10:56.606Z",
              "from": "Yoda",
              "icon": "IconTimer",
              "id": 117,
              "message": "The blasted rebels have destroyed my Planet Destroyer, how long willit take to process my claim to build a new new one?",
              "priority": "",
              "read": false,
              "replied": false,
              "subject": "Weapons System Upgrade"
            },
            {
              "attachment": true,
              "date": "2017-10-11T05:10:56.606Z",
              "from": "Han Solo",
              "icon": "IconTimer",
              "id": 118,
              "message": "Hi, I am looking to upgrade the weapons system on my X-Wing Fighter to Star Wars is an American epic space opera media franchise, centered on a film series created by George Lucas. It depicts the adventures of various characters a long time ago in a galaxy far, far away",
              "priority": "LOW",
              "read": false,
              "replied": false,
              "subject": "Weapons System Upgrade"
            },
            {
              "attachment": true,
              "date": "2017-10-11T05:10:56.606Z",
              "from": "Princes Leila",
              "icon": "IconTimer",
              "id": 119,
              "message": "The blasted rebels have destroyed my Planet Destroyer, how long willit take to process my claim to build a new new one?",
              "priority": "HIGH",
              "read": true,
              "replied": true,
              "subject": "Policy Schedule"
            },
            {
              "attachment": true,
              "date": "2017-10-11T05:10:56.606Z",
              "from": "Han Solo",
              "icon": "IconTimer",
              "id": 120,
              "message": "The blasted rebels have destroyed my Planet Destroyer, how long willit take to process my claim to build a new new one?",
              "priority": "",
              "read": true,
              "replied": false,
              "subject": "Weapons System Upgrade"
            },
            {
              "attachment": true,
              "date": "2017-10-11T05:10:56.606Z",
              "from": "Yoda",
              "icon": "IconTimer",
              "id": 121,
              "message": "The blasted rebels have destroyed my Planet Destroyer, how long willit take to process my claim to build a new new one?",
              "priority": "",
              "read": false,
              "replied": false,
              "subject": "Weapons System Upgrade"
            },
            {
              "attachment": true,
              "date": "2017-10-11T05:10:56.606Z",
              "from": "Han Solo",
              "icon": "IconTimer",
              "id": 122,
              "message": "Hi, I am looking to upgrade the weapons system on my X-Wing Fighter to Star Wars is an American epic space opera media franchise, centered on a film series created by George Lucas. It depicts the adventures of various characters a long time ago in a galaxy far, far away",
              "priority": "LOW",
              "read": false,
              "replied": false,
              "subject": "Weapons System Upgrade"
            },
            {
              "attachment": true,
              "date": "2017-10-11T05:10:56.606Z",
              "from": "Princes Leila",
              "icon": "IconTimer",
              "id": 123,
              "message": "The blasted rebels have destroyed my Planet Destroyer, how long willit take to process my claim to build a new new one?",
              "priority": "HIGH",
              "read": true,
              "replied": true,
              "subject": "Policy Schedule"
            },
            {
              "attachment": true,
              "date": "2017-10-11T05:10:56.606Z",
              "from": "Han Solo",
              "icon": "IconTimer",
              "id": 124,
              "message": "The blasted rebels have destroyed my Planet Destroyer, how long willit take to process my claim to build a new new one?",
              "priority": "",
              "read": true,
              "replied": false,
              "subject": "Weapons System Upgrade"
            },
            {
              "attachment": true,
              "date": "2017-10-11T05:10:56.606Z",
              "from": "Yoda",
              "icon": "IconTimer",
              "id": 125,
              "message": "The blasted rebels have destroyed my Planet Destroyer, how long willit take to process my claim to build a new new one?",
              "priority": "",
              "read": false,
              "replied": false,
              "subject": "Weapons System Upgrade"
            }
          ],
          "SENT": [
            {
              "attachment": false,
              "date": "2017-10-11T05:10:56.606Z",
              "from": "Princess Leila",
              "icon": "IconProfile",
              "id": 130,
              "message": "The New Planet Destroyer has been completed, is my policy up to date in this regard?",
              "priority": "",
              "read": true,
              "replied": false,
              "subject": "Weapons System Upgrade"
            }
          ]
        },
        "icon": "IconEmailOutline",
        "id": 202,
        "isActive": false,
        "name": "claims@starsure.com",
        "type": "EMAIL"
      },
      {
        "data": {
          "ARCHIVE": [
            {
              "attachment": true,
              "date": "2017-10-11T05:10:56.606Z",
              "from": "Darth Vader",
              "icon": "IconProfile",
              "id": 340,
              "message": "The blasted rebels have destroyed my Planet Destroyer, how long will it take to process my claim to build a new new one?",
              "read": true,
              "replied": false,
              "subject": "Destroyer Hijacked"
            }
          ],
          "DRAFTS": [
            {
              "attachment": false,
              "date": "2017-10-11T05:10:56.606Z",
              "from": "Luke Skywalker",
              "icon": "IconEmailOutline",
              "id": 320,
              "message": "Mr Solo, I demand that you add my new Light Sabre to my policy, it's value is 3000 GC, my new apprentice, Kylo Ren will be using it. Fail me and die...",
              "priority": "LOW",
              "read": true,
              "replied": true,
              "subject": "Weapons System Upgrade"
            }
          ],
          "INBOX": [
            {
              "attachment": true,
              "date": "2017-10-11T05:10:56.606Z",
              "from": "Han Solo",
              "icon": "IconTimer",
              "id": 310,
              "message": "The blasted rebels have destroyed my Planet Destroyer, how longwill it take to process my claim to build a new new one?",
              "priority": "HIGH",
              "read": false,
              "replied": false,
              "subject": "Weapons System Upgrade"
            },
            {
              "attachment": true,
              "date": "2017-10-11T05:10:56.606Z",
              "from": "Han Solo",
              "icon": "IconTimer",
              "id": 311,
              "message": "The blasted rebels have destroyed my Planet Destroyer, how long willit take to process my claim to build a new new one?",
              "priority": "HIGH",
              "read": true,
              "replied": true,
              "subject": "Weapons System Upgrade"
            },
            {
              "attachment": true,
              "date": "2017-10-11T05:10:56.606Z",
              "from": "Han Solo",
              "icon": "IconTimer",
              "id": 312,
              "message": "The blasted rebels have destroyed my Planet Destroyer, how long willit take to process my claim to build a new new one?",
              "priority": "HIGH",
              "read": true,
              "replied": false,
              "subject": "Weapons System Upgrade"
            }
          ],
          "SENT": [
            {
              "attachment": false,
              "date": "2017-10-11T05:10:56.606Z",
              "from": "Princess Leila",
              "icon": "IconProfile",
              "id": 330,
              "message": "The New Planet Destroyer has been completed, is my policy up to date in this regard?",
              "priority": "",
              "read": true,
              "replied": false,
              "subject": "Weapons System Upgrade"
            }
          ]
        },
        "icon": "IconEmailOutline",
        "id": 302,
        "isActive": false,
        "name": "quotes@starsure.com",
        "type": "EMAIL"
      },
      {
        "data": [
          {
            "date": "2017-10-11T05:10:56.606Z",
            "icon": "IconProfile",
            "id": 1002,
            "message": "The blasted rebels have destroyed my Planet Destroyer, how long will it take to process my claim to build a new new one?",
            "name": "Darth Vader",
            "read": false
          },
          {
            "date": "2017-10-10T05:10:56.607Z",
            "icon": "IconProfile",
            "id": 1003,
            "message": "Mr Solo, I demand that you add my new Light Sabre to my policy, it's value is 3000 GC, my new apprentice, Kylo Ren will be using it. Fail me and die...",
            "name": "Luke Skywalker",
            "read": true
          },
          {
            "date": "2017-10-09T05:10:56.608Z",
            "icon": "IconProfile",
            "id": 1004,
            "message": "The New Planet Destroyer has been completed, is my policy up to date in this regard?",
            "name": "Darth Vader",
            "read": false
          }
        ],
        "icon": "IconWhatsApp",
        "id": 3,
        "isActive": false,
        "name": "Luke Skywalker",
        "type": "WHATSAPP"
      },
      {
        "data": [
          {
            "date": "2017-10-11T05:10:56.606Z",
            "icon": "IconProfile",
            "id": 1230,
            "message": "The blasted rebels have destroyed my Planet Destroyer, how long will it take to process my claim to build a new new one?",
            "name": "Darth Vader",
            "read": false
          },
          {
            "date": "2017-10-10T05:10:56.607Z",
            "icon": "IconEllipsis",
            "id": 1231,
            "message": "Mr Solo, I demand that you add my new Light Sabre to my policy, it's value is 3000 GC, my new apprentice, Kylo Ren will be using it. Fail me and die...",
            "name": "Darth Vader",
            "read": true
          },
          {
            "date": "2017-10-09T05:10:56.608Z",
            "icon": "IconProfile",
            "id": 1232,
            "message": "The New Planet Destroyer has been completed, is my policy up to date in this regard?",
            "name": "Darth Vader",
            "read": true
          }
        ],
        "icon": "IconSlack",
        "id": 4,
        "isActive": false,
        "name": "admin@starsure",
        "type": "SLACK"
      }
    ],
    "name": "Communication"
  },
  "discussions": {
    "icon": "IconSingleDiscussion",
    "id": 2,
    "items": [
      {
        "data": [
          {
            "date": "2017-10-11T05:10:56.606Z",
            "icon": "IconProfile",
            "id": 1002,
            "message": "The blasted rebels have destroyed my Planet Destroyer, how long will it take to process my claim to build a new new one?",
            "name": "Han Solo",
            "read": true
          },
          {
            "date": "2017-10-10T05:10:56.607Z",
            "icon": "IconProfile",
            "id": 1003,
            "message": "Mr Solo, I demand that you add my new Light Sabre to my policy, it's value is 3000 GC, my new apprentice, Kylo Ren will be using it. Fail me and die...",
            "name": "Han Solo",
            "read": true
          },
          {
            "date": "2017-10-09T05:10:56.608Z",
            "icon": "IconProfile",
            "id": 1004,
            "message": "The New Planet Destroyer has been completed, is my policy up to date in this regard?",
            "name": "Han Solo",
            "read": true
          }
        ],
        "icon": "IconTimer",
        "id": 1,
        "isActive": false,
        "name": "Han Solo",
        "type": "WHATSAPP"
      },
      {
        "data": [
          {
            "date": "2017-10-11T05:10:56.606Z",
            "icon": "IconProfile",
            "id": 1002,
            "message": "The blasted rebels have destroyed my Planet Destroyer, how long will it take to process my claim to build a new new one?",
            "name": "Darth Vader",
            "read": false
          },
          {
            "date": "2017-10-10T05:10:56.607Z",
            "icon": "IconProfile",
            "id": 1003,
            "message": "Mr Solo, I demand that you add my new Light Sabre to my policy, it's value is 3000 GC, my new apprentice, Kylo Ren will be using it. Fail me and die...",
            "name": "Luke Skywalker",
            "read": true
          },
          {
            "date": "2017-10-09T05:10:56.608Z",
            "icon": "IconProfile",
            "id": 1004,
            "message": "The New Planet Destroyer has been completed, is my policy up to date in this regard?",
            "name": "Darth Vader",
            "read": false
          }
        ],
        "icon": "IconProfile",
        "id": 2,
        "isActive": false,
        "name": "#Customer Josh",
        "type": "WHATSAPP"
      },
      {
        "data": [
          {
            "date": "2017-10-11T05:10:56.606Z",
            "icon": "IconProfile",
            "id": 1002,
            "message": "The blasted rebels have destroyed my Planet Destroyer, how long will it take to process my claim to build a new new one?",
            "name": "Darth Vader",
            "read": true
          },
          {
            "date": "2017-10-10T05:10:56.607Z",
            "icon": "IconProfile",
            "id": 1003,
            "message": "Mr Solo, I demand that you add my new Light Sabre to my policy, it's value is 3000 GC, my new apprentice, Kylo Ren will be using it. Fail me and die...",
            "name": "Luke Skywalker",
            "read": true
          },
          {
            "date": "2017-10-09T05:10:56.608Z",
            "icon": "IconProfile",
            "id": 1004,
            "message": "The New Planet Destroyer has been completed, is my policy up to date in this regard?",
            "name": "Darth Vader",
            "read": false
          }
        ],
        "icon": "IconProfile",
        "id": 3,
        "isActive": false,
        "name": "Claims",
        "type": "WHATSAPP"
      },
      {
        "data": [
          {
            "date": "2017-10-11T05:10:56.606Z",
            "icon": "IconProfile",
            "id": 1002,
            "message": "The blasted rebels have destroyed my Planet Destroyer, how long will it take to process my claim to build a new new one?",
            "name": "Darth Vader",
            "read": false
          },
          {
            "date": "2017-10-10T05:10:56.607Z",
            "icon": "IconProfile",
            "id": 1003,
            "message": "Mr Solo, I demand that you add my new Light Sabre to my policy, it's value is 3000 GC, my new apprentice, Kylo Ren will be using it. Fail me and die...",
            "name": "Luke Skywalker",
            "read": true
          },
          {
            "date": "2017-10-09T05:10:56.608Z",
            "icon": "IconProfile",
            "id": 1004,
            "message": "The New Planet Destroyer has been completed, is my policy up to date in this regard?",
            "name": "Darth Vader",
            "read": false
          }
        ],
        "icon": "IconWhatsApp",
        "id": 4,
        "isActive": false,
        "name": "Endorsements",
        "type": "WHATSAPP"
      }
    ],
    "name": "Discussions"
  },
  "documents": {
    "icon": "IconDocumentOutline",
    "id": 3,
    "items": [
      {
        "date": "2017-10-11T05:10:56.606Z",
        "icon": "IconEllipsis",
        "id": 1,
        "name": "Policy Schedule"
      },
      {
        "date": "2017-10-10T05:10:56.607Z",
        "icon": "IconEllipsis",
        "id": 2,
        "name": "Light Saber Photo"
      },
      {
        "date": "2017-10-09T05:10:56.608Z",
        "icon": "IconEllipsis",
        "id": 3,
        "name": "Planet Destroyer Plans"
      }
    ],
    "name": "Documents"
  },
  "links": {
    "icon": "IconLink",
    "id": 5,
    "items": [
      {
        "icon": "IconEllipsis",
        "id": 1,
        "name": "Policy Schedule"
      },
      {
        "icon": "IconEllipsis",
        "id": 2,
        "name": "Death Star Plans"
      },
      {
        "icon": "IconEllipsis",
        "id": 3,
        "name": "Planetary Holdings Assessment"
      }
    ],
    "name": "Links"
  },
  "notes": {
    "icon": "IconNote",
    "id": 4,
    "items": [
      {
        "date": "2017-10-11T05:10:56.606Z",
        "icon": "IconEllipsis",
        "id": 1,
        "message": "Call Mr Vader tomorrow to inform him that we are canceling his policy",
        "name": "Han Solo"
      },
      {
        "date": "2017-10-10T05:10:56.607Z",
        "icon": "IconEllipsis",
        "id": 2,
        "message": "Was unable to get hold of Mr Vader via com's channels",
        "name": "Obe-Wan Kanobi"
      },
      {
        "date": "2017-10-09T05:10:56.608Z",
        "icon": "IconEllipsis",
        "id": 3,
        "message": "",
        "name": "Carl Smiths"
      }
    ],
    "name": "Notes"
  },
  "tags": {
    "icon": "IconTag",
    "id": 600,
    "items": [
      {
        "date": "2017-10-11T05:10:56.606Z",
        "icon": "IconTag",
        "id": 1236,
        "message": "Was unable to get hold of Mr Vader via com's channels",
        "name": "VIP"
      },
      {
        "date": "2017-10-11T05:10:56.606Z",
        "icon": "IconTag",
        "id": 1237,
        "message": "Was unable to get hold of Mr Vader via com's channels",
        "name": "Dangerous"
      },
      {
        "date": "2017-10-11T05:10:56.606Z",
        "icon": "IconTag",
        "id": 1238,
        "message": "Was unable to get hold of Mr Vader via com's channels cvffterbgfd",
        "name": "Sith Lord"
      }
    ],
    "name": "Tags"
  }
}
