[
  {
    "icon": "IconTimer",
    "link": "/work-desk",
    "name": "Work Desk"
  },
  {
    "icon": "IconDocumentOutline",
    "link": "/users-teams-roles",
    "name": "Users, Teams & Roles"
  },
  {
    "icon": "IconSuitcase",
    "link": "/process-builder",
    "name": "Process Builder"
  },
  {
    "icon": "IconChecklist",
    "link": "/information-manager",
    "name": "Information Manager"
  },
  {
    "icon": "IconTrophy",
    "link": "/feature-manager",
    "name": "Features"
  },
  {
    "icon": "IconCalendarOutline",
    "link": "/page-builder",
    "name": "Page Builder"
  },
  {
    "icon": "IconToDo",
    "link": "/page-viewer",
    "name": "Page Viewer"
  },
  {
    "icon": "IconPersonalItems",
    "link": "/product-manager",
    "name": "Product Manager"
  }
]
